{
  "unknownRelation": {
    "rel": "UNKNOWN_RELATION",
    "in": "concept1",
    "out": "label1",
    "properties" : {"creationDate": "1478176985"}
  },
  "malformedOutRelation": {
    "rel": "PREF_LABEL",
    "in": "concept1",
    "out": "",
    "properties" : {"creationDate": "1478176985"}
  },
  "malformedInRelation": {
    "rel": "PREF_LABEL",
    "in": "",
    "out": "label1"
  },
  "unknownProperty": {
    "rel": "PREF_LABEL",
    "in": "concept1",
    "out": "label1",
    "properties" : {"unknownProperty": "Youhou"}
  }
}